/home/inagaki/my_spark/spark-cache/common/unsafe/src/main/java/org/apache/spark/unsafe/array/LongArray.java
/home/inagaki/my_spark/spark-cache/common/unsafe/src/main/java/org/apache/spark/unsafe/memory/MemoryLocation.java
/home/inagaki/my_spark/spark-cache/common/unsafe/src/main/java/org/apache/spark/unsafe/Platform.java
/home/inagaki/my_spark/spark-cache/common/unsafe/src/main/java/org/apache/spark/unsafe/UnsafeAlignedOffset.java
/home/inagaki/my_spark/spark-cache/common/unsafe/src/main/java/org/apache/spark/unsafe/memory/HeapMemoryAllocator.java
/home/inagaki/my_spark/spark-cache/common/unsafe/src/main/java/org/apache/spark/unsafe/types/CalendarInterval.java
/home/inagaki/my_spark/spark-cache/common/unsafe/src/main/java/org/apache/spark/unsafe/hash/Murmur3_x86_32.java
/home/inagaki/my_spark/spark-cache/common/unsafe/src/main/java/org/apache/spark/unsafe/types/UTF8String.java
/home/inagaki/my_spark/spark-cache/common/unsafe/src/main/java/org/apache/spark/unsafe/types/ByteArray.java
/home/inagaki/my_spark/spark-cache/common/unsafe/src/main/java/org/apache/spark/unsafe/memory/UnsafeMemoryAllocator.java
/home/inagaki/my_spark/spark-cache/common/unsafe/src/main/java/org/apache/spark/sql/catalyst/expressions/HiveHasher.java
/home/inagaki/my_spark/spark-cache/common/unsafe/src/main/java/org/apache/spark/unsafe/memory/MemoryBlock.java
/home/inagaki/my_spark/spark-cache/common/unsafe/src/main/java/org/apache/spark/unsafe/KVIterator.java
/home/inagaki/my_spark/spark-cache/common/unsafe/src/main/java/org/apache/spark/unsafe/bitset/BitSetMethods.java
/home/inagaki/my_spark/spark-cache/common/unsafe/src/main/java/org/apache/spark/unsafe/memory/MemoryAllocator.java
/home/inagaki/my_spark/spark-cache/common/unsafe/src/main/java/org/apache/spark/unsafe/array/ByteArrayMethods.java
