/home/inagaki/my_spark/spark-cache/sql/core/src/test/gen-java/org/apache/spark/sql/execution/datasources/parquet/test/avro/CompatibilityTest.java
/home/inagaki/my_spark/spark-cache/sql/core/src/test/gen-java/org/apache/spark/sql/execution/datasources/parquet/test/avro/AvroPrimitives.java
/home/inagaki/my_spark/spark-cache/sql/core/src/test/java/test/org/apache/spark/sql/JavaDataFrameReaderWriterSuite.java
/home/inagaki/my_spark/spark-cache/sql/core/src/test/gen-java/org/apache/spark/sql/execution/datasources/parquet/test/avro/ParquetAvroCompat.java
/home/inagaki/my_spark/spark-cache/sql/core/src/test/gen-java/org/apache/spark/sql/execution/datasources/parquet/test/avro/ParquetEnum.java
/home/inagaki/my_spark/spark-cache/sql/core/src/test/gen-java/org/apache/spark/sql/execution/datasources/parquet/test/avro/AvroMapOfArray.java
/home/inagaki/my_spark/spark-cache/sql/core/src/test/java/test/org/apache/spark/sql/JavaDatasetAggregatorSuite.java
/home/inagaki/my_spark/spark-cache/sql/core/src/test/java/test/org/apache/spark/sql/JavaDatasetAggregatorSuiteBase.java
/home/inagaki/my_spark/spark-cache/sql/core/src/test/java/test/org/apache/spark/sql/JavaDataFrameSuite.java
/home/inagaki/my_spark/spark-cache/sql/core/src/test/java/test/org/apache/spark/sql/JavaSaveLoadSuite.java
/home/inagaki/my_spark/spark-cache/sql/core/src/test/gen-java/org/apache/spark/sql/execution/datasources/parquet/test/avro/AvroOptionalPrimitives.java
/home/inagaki/my_spark/spark-cache/sql/core/src/test/java/test/org/apache/spark/sql/JavaApplySchemaSuite.java
/home/inagaki/my_spark/spark-cache/sql/core/src/test/gen-java/org/apache/spark/sql/execution/datasources/parquet/test/avro/Suit.java
/home/inagaki/my_spark/spark-cache/sql/core/src/test/java/test/org/apache/spark/sql/JavaRowSuite.java
/home/inagaki/my_spark/spark-cache/sql/core/src/test/java/test/org/apache/spark/sql/JavaUDFSuite.java
/home/inagaki/my_spark/spark-cache/sql/core/src/test/gen-java/org/apache/spark/sql/execution/datasources/parquet/test/avro/Nested.java
/home/inagaki/my_spark/spark-cache/sql/core/src/test/java/test/org/apache/spark/sql/Java8DatasetAggregatorSuite.java
/home/inagaki/my_spark/spark-cache/sql/core/src/test/gen-java/org/apache/spark/sql/execution/datasources/parquet/test/avro/AvroNonNullableArrays.java
/home/inagaki/my_spark/spark-cache/sql/core/src/test/java/test/org/apache/spark/sql/JavaStringLength.java
/home/inagaki/my_spark/spark-cache/sql/core/src/test/java/test/org/apache/spark/sql/JavaDatasetSuite.java
/home/inagaki/my_spark/spark-cache/sql/core/src/test/gen-java/org/apache/spark/sql/execution/datasources/parquet/test/avro/AvroArrayOfArray.java
